<?xml version="1.0" encoding="iso-8859-1"?>
<!-- Generator: Adobe Illustrator 22.0.0, SVG Export Plug-In . SVG Version: 6.00 Build 0)  -->
<svg version="1.1" id="OBJECTS" xmlns="http://www.w3.org/2000/svg" xmlns:xlink="http://www.w3.org/1999/xlink" x="0px" y="0px"
	 viewBox="0 0 81.614 81.614" style="enable-background:new 0 0 81.614 81.614;" xml:space="preserve">
<ellipse transform="matrix(0.2422 -0.9702 0.9702 0.2422 -8.6695 70.5136)" style="fill:#009BFF;" cx="40.807" cy="40.807" rx="40.807" ry="40.807"/>
<circle style="fill:#FFFFFF;" cx="40.807" cy="40.807" r="32.191"/>
<polyline style="fill:none;stroke:#0580C4;stroke-width:2.4384;stroke-linecap:round;stroke-linejoin:round;stroke-miterlimit:10;" points="
	40.807,18.545 40.807,40.807 27.754,49.055 "/>
</svg>
