<svg width="717" height="417" viewBox="0 0 717 417" fill="none" xmlns="http://www.w3.org/2000/svg">
<path d="M717 105.378L483.053 105.438L277.226 105.505L288.201 0H155.824V43.344H194.641H232.916L230.816 63.5403L219.917 168.306H0V211.65H215.409L212.077 243.687H111.676V287.031H207.568L205.49 307H636.457L717 105.378ZM260.774 263.657L266.184 211.651H307.574V168.307H270.693L277.226 105.505L472.068 105.442L569.489 105.41L666.911 105.378L600.838 263.657H260.774Z" fill="#00A9FA"/>
<path d="M392.66 401.982C402.176 411.054 416.565 416.258 432.141 416.258C462.665 416.258 490.632 397.092 495.809 372.625C498.484 359.986 494.49 347.466 484.852 338.276C475.337 329.204 460.947 324 445.371 324H232.482C201.958 324 173.991 343.166 168.813 367.632C166.138 380.271 170.132 392.792 179.771 401.982C189.286 411.054 203.675 416.258 219.251 416.258C249.774 416.258 277.741 397.092 282.919 372.626C284.288 366.156 283.906 359.719 281.917 353.742H387.357C384.674 358.088 382.734 362.754 381.701 367.631C379.028 380.271 383.021 392.791 392.66 401.982ZM243.722 357.459C246.362 359.977 247.345 363.589 246.489 367.631C244.36 377.69 231.632 386.516 219.251 386.516C214.449 386.516 210.562 385.229 208.011 382.798C205.37 380.281 204.388 376.668 205.244 372.626C207.373 362.567 220.101 353.742 232.482 353.742C237.284 353.742 241.171 355.027 243.722 357.459ZM456.612 357.459C459.252 359.977 460.235 363.589 459.379 367.631C457.25 377.69 444.521 386.516 432.141 386.516C427.338 386.516 423.451 385.229 420.9 382.798C418.26 380.281 417.278 376.668 418.133 372.626C420.262 362.567 432.99 353.742 445.371 353.742C450.174 353.742 454.061 355.027 456.612 357.459Z" fill="#33475B"/>
<path d="M195.316 111.164H60.7868V142.124H195.316V111.164Z" fill="#33475B"/>
<circle cx="459" cy="142" r="100" fill="#33475B"/>
<path d="M513.806 196.691L507.095 106.753C506.947 104.774 505.078 103.236 502.822 103.236H484.088V100.815C484.088 90.4406 474.483 82 462.679 82H455.315C443.511 82 433.906 90.4406 433.906 100.815V103.236H415.172C412.916 103.236 411.047 104.774 410.899 106.753L404.171 196.91C404.093 197.949 404.509 198.969 405.318 199.728C406.128 200.488 407.259 200.919 408.444 200.919H509.55C509.553 200.919 509.555 200.919 509.557 200.919C511.922 200.919 513.839 199.234 513.839 197.156C513.838 196.999 513.828 196.844 513.806 196.691ZM442.47 100.815C442.47 94.5902 448.232 89.5261 455.315 89.5261H462.678C469.761 89.5261 475.524 94.5902 475.524 100.815V103.236H442.47V100.815ZM413.015 193.393L419.182 110.762H433.906V114.12C430.859 115.493 428.768 118.28 428.768 121.49C428.768 126.055 432.993 129.769 438.188 129.769C443.382 129.769 447.608 126.055 447.608 121.49C447.608 118.28 445.516 115.493 442.47 114.12V110.762H475.524V114.12C472.476 115.493 470.386 118.28 470.386 121.49C470.386 126.055 474.611 129.769 479.806 129.769C485 129.769 489.226 126.055 489.226 121.49C489.226 118.28 487.135 115.493 484.088 114.12V110.762H498.811L504.978 193.393H413.015Z" fill="white"/>
</svg>
