<?xml version="1.0" encoding="utf-8"?>
<!-- Generator: Adobe Illustrator 23.0.1, SVG Export Plug-In . SVG Version: 6.00 Build 0)  -->
<svg version="1.1" id="Layer_1" xmlns="http://www.w3.org/2000/svg" xmlns:xlink="http://www.w3.org/1999/xlink" x="0px" y="0px"
	 width="16.2px" height="17.2px" viewBox="0 0 16.2 17.2" style="enable-background:new 0 0 16.2 17.2;" xml:space="preserve">
<style type="text/css">
	.st0{filter:url(#Adobe_OpacityMaskFilter);}
	.st1{fill-rule:evenodd;clip-rule:evenodd;fill:#FFFFFF;}
	.st2{mask:url(#mask-4_2_);fill-rule:evenodd;clip-rule:evenodd;fill:#FF7A59;}
</style>
<defs>
	<filter id="Adobe_OpacityMaskFilter" filterUnits="userSpaceOnUse" x="0" y="0" width="16.2" height="17.2">
		<feColorMatrix  type="matrix" values="1 0 0 0 0  0 1 0 0 0  0 0 1 0 0  0 0 0 1 0"/>
	</filter>
</defs>
<mask maskUnits="userSpaceOnUse" x="0" y="0" width="16.2" height="17.2" id="mask-4_2_">
	<g class="st0">
		<polygon id="path-3_2_" class="st1" points="0,0 16.2,0 16.2,17.2 0,17.2 		"/>
	</g>
</mask>
<path id="Fill-13" class="st2" d="M11.8,12.4c-1.3,0-2.3-1-2.3-2.3c0-1.3,1-2.3,2.3-2.3s2.3,1,2.3,2.3C14,11.4,13,12.4,11.8,12.4
	 M12.4,5.7v-2c0.5-0.3,0.9-0.8,0.9-1.4v0c0-0.9-0.7-1.6-1.6-1.6h0c-0.9,0-1.6,0.7-1.6,1.6v0c0,0.6,0.4,1.2,0.9,1.4v2
	C10.3,5.8,9.6,6.1,9,6.6L3.4,2.2c0-0.1,0.1-0.3,0.1-0.4c0-1-0.8-1.8-1.7-1.8C0.8,0,0,0.8,0,1.8s0.8,1.8,1.7,1.8
	c0.3,0,0.6-0.1,0.9-0.2l5.5,4.3c-0.5,0.7-0.7,1.6-0.7,2.5c0,1,0.3,1.8,0.8,2.6l-1.7,1.7c-0.1,0-0.3-0.1-0.4-0.1
	c-0.8,0-1.4,0.7-1.4,1.5c0,0.8,0.6,1.5,1.4,1.5c0.8,0,1.4-0.7,1.4-1.5c0-0.1,0-0.3-0.1-0.4l1.6-1.7c0.7,0.6,1.7,0.9,2.7,0.9
	c2.4,0,4.4-2,4.4-4.5C16.2,7.9,14.6,6,12.4,5.7"/>
</svg>
